[
    {
        "name": "geometry_consistent_normals_check",
        "enabled": false
    },
    {
        "name": "floating_point_model_check",
        "enabled": true
    },
    {
        "name": "overlap_model_check",
        "enabled": true
    }
]
